^C:\USERS\BV\SOURCE\REPOS\HOME WORK 16\DEBUG\HOME WORK 16.OBJ
C:\USERS\BV\SOURCE\REPOS\HOME WORK 16\DEBUG\HOME WORK 16.EXE
C:\USERS\BV\SOURCE\REPOS\HOME WORK 16\DEBUG\HOME WORK 16.ILK
C:\USERS\BV\SOURCE\REPOS\HOME WORK 16\DEBUG\HOME WORK 16.PDB
